{"count":20,"next":"https://dev.getlinked.ai/talent/create_cover_letter/?page=2","previous":null,"results":[{"id":1,"talent_full_name":"Shaun Okojie","talent_email":"shaun@mailinator.com","talent_street":"Bodija, Ibadan","talent_city":"Ibadan","talent_state":"Oyo State","talent_country":"Nigeria","talent_phone_number":"2347068965431","recipient_full_name":"Chike Oyinbo","recipient_email":"talentOutsourcing@mailinator.com","recipient_street":"VIictoria Island","recipient_city":"Garden","recipient_state":"Lagos","recipient_country":"Nigeria","recipient_phone_number":"2347885494949","company_name":"Talent Outsourcing","cover_letter_date":"2024-10-15T17:51:13.064Z","cover_letter_subject":"Application for Position at Talent Outsourcing","cover_letter_body":"<p>Dear Chike Oyinbo, I am excited to apply for a position at Talent Outsourcing. With a background in human resources and a proven track record of improving employee efficiency and retention, I believe I can bring valuable skills to your team. My experience as the Director of Human Resources at Wes Morgan Philips, where I implemented strategies that led to a 50% reduction in turnover, has equipped me with the necessary expertise to contribute effectively to Talent Outsourcing. Furthermore, my marketing skills at River Tech resulted in a 45% increase in customer engagement, showcasing my ability to drive results and reach new clients through innovative campaigns. I am confident that my skills and achievements align well with the goals of Talent Outsourcing, and I am eager to bring my expertise to your organization. Thank you for considering my application. I look forward to the opportunity to discuss how my background and skills can benefit Talent Outsourcing. Sincerely, Shaun Okojie</p>","selected_template_to_cover":"2","gpt_cover_letter_body":null,"created_at":"2024-10-15T18:48:40.643124","updated_at2":"2024-10-15T19:01:20.191324","talent":"389c2e97-8eb9-457c-8fea-a79463f88102"},{"id":2,"talent_full_name":"","talent_email":"joe@gmail.com","talent_street":"123, dc way","talent_city":"Lekki","talent_state":"Abujaaaaaaa","talent_country":"Nigeria","talent_phone_number":"07013724573","recipient_full_name":"Google LLC","recipient_email":"google@gmail.com","recipient_street":"Google LLC, 1600 Amphitheatre Parkway Mountain View, CA 94043","recipient_city":"Mountain View","recipient_state":"Santa Clara County, California,","recipient_country":"United States","recipient_phone_number":"09036746334","company_name":"Liberty Assured","cover_letter_date":"25th, December 2023","cover_letter_subject":"Frontend Developer","cover_letter_body":"","selected_template_to_cover":null,"gpt_cover_letter_body":null,"created_at":"2024-11-24T23:24:08.635357","updated_at2":"2024-11-24T23:24:08.635382","talent":"389c2e97-8eb9-457c-8fea-a79463f88102"},{"id":13,"talent_full_name":"","talent_email":"","talent_street":"","talent_city":"","talent_state":"","talent_country":"","talent_phone_number":"","recipient_full_name":"","recipient_email":"","recipient_street":"","recipient_city":"","recipient_state":"","recipient_country":"","recipient_phone_number":"","company_name":"","cover_letter_date":"","cover_letter_subject":"","cover_letter_body":"","selected_template_to_cover":null,"gpt_cover_letter_body":null,"created_at":"2024-11-29T09:24:31.257084","updated_at2":"2024-11-29T09:24:31.257103","talent":"389c2e97-8eb9-457c-8fea-a79463f88102"},{"id":5,"talent_full_name":"","talent_email":"","talent_street":"","talent_city":"","talent_state":"","talent_country":"","talent_phone_number":"","recipient_full_name":"","recipient_email":"","recipient_street":"","recipient_city":"","recipient_state":"","recipient_country":"","recipient_phone_number":"","company_name":"","cover_letter_date":"","cover_letter_subject":"","cover_letter_body":"","selected_template_to_cover":null,"gpt_cover_letter_body":null,"created_at":"2024-11-26T17:38:32.454047","updated_at2":"2024-11-26T17:38:32.454067","talent":"389c2e97-8eb9-457c-8fea-a79463f88102"},{"id":14,"talent_full_name":"","talent_email":"","talent_street":"","talent_city":"","talent_state":"","talent_country":"","talent_phone_number":"","recipient_full_name":"","recipient_email":"","recipient_street":"","recipient_city":"","recipient_state":"","recipient_country":"","recipient_phone_number":"","company_name":"","cover_letter_date":"","cover_letter_subject":"","cover_letter_body":"","selected_template_to_cover":null,"gpt_cover_letter_body":null,"created_at":"2024-11-29T09:27:40.390283","updated_at2":"2024-11-29T09:27:40.390303","talent":"389c2e97-8eb9-457c-8fea-a79463f88102"},{"id":6,"talent_full_name":"","talent_email":"","talent_street":"","talent_city":"","talent_state":"","talent_country":"","talent_phone_number":"","recipient_full_name":"","recipient_email":"","recipient_street":"","recipient_city":"","recipient_state":"","recipient_country":"","recipient_phone_number":"","company_name":"","cover_letter_date":"","cover_letter_subject":"","cover_letter_body":"","selected_template_to_cover":null,"gpt_cover_letter_body":null,"created_at":"2024-11-26T17:59:44.323449","updated_at2":"2024-11-26T17:59:44.323471","talent":"389c2e97-8eb9-457c-8fea-a79463f88102"},{"id":7,"talent_full_name":"","talent_email":"","talent_street":"","talent_city":"","talent_state":"","talent_country":"","talent_phone_number":"","recipient_full_name":"","recipient_email":"","recipient_street":"","recipient_city":"","recipient_state":"","recipient_country":"","recipient_phone_number":"","company_name":"","cover_letter_date":"","cover_letter_subject":"","cover_letter_body":"","selected_template_to_cover":null,"gpt_cover_letter_body":null,"created_at":"2024-11-26T19:30:27.311958","updated_at2":"2024-11-26T19:30:27.311982","talent":"389c2e97-8eb9-457c-8fea-a79463f88102"},{"id":15,"talent_full_name":"","talent_email":"","talent_street":"","talent_city":"","talent_state":"","talent_country":"","talent_phone_number":"","recipient_full_name":"","recipient_email":"","recipient_street":"","recipient_city":"","recipient_state":"","recipient_country":"","recipient_phone_number":"","company_name":"","cover_letter_date":"","cover_letter_subject":"","cover_letter_body":"","selected_template_to_cover":null,"gpt_cover_letter_body":null,"created_at":"2024-11-29T09:30:43.804808","updated_at2":"2024-11-29T09:30:43.804829","talent":"389c2e97-8eb9-457c-8fea-a79463f88102"},{"id":8,"talent_full_name":"","talent_email":"","talent_street":"","talent_city":"","talent_state":"","talent_country":"","talent_phone_number":"","recipient_full_name":"","recipient_email":"","recipient_street":"","recipient_city":"","recipient_state":"","recipient_country":"","recipient_phone_number":"","company_name":"","cover_letter_date":"","cover_letter_subject":"","cover_letter_body":"","selected_template_to_cover":null,"gpt_cover_letter_body":null,"created_at":"2024-11-27T19:38:24.561798","updated_at2":"2024-11-27T19:38:24.561826","talent":"389c2e97-8eb9-457c-8fea-a79463f88102"},{"id":9,"talent_full_name":"","talent_email":"","talent_street":"","talent_city":"","talent_state":"","talent_country":"","talent_phone_number":"","recipient_full_name":"","recipient_email":"","recipient_street":"","recipient_city":"","recipient_state":"","recipient_country":"","recipient_phone_number":"","company_name":"","cover_letter_date":"","cover_letter_subject":"","cover_letter_body":"","selected_template_to_cover":null,"gpt_cover_letter_body":null,"created_at":"2024-11-29T08:17:01.344047","updated_at2":"2024-11-29T08:17:01.344077","talent":"389c2e97-8eb9-457c-8fea-a79463f88102"}]}