{"count":80,"next":"https://dev.getlinked.ai/talents/cover_letters/73/?page=2","previous":null,"results":[{"id":49,"talent_full_name":"A","talent_email":"F","talent_street":"B","talent_city":"C","talent_state":"D","talent_country":"E","talent_phone_number":"G","recipient_full_name":"H","recipient_email":"M","recipient_street":"I","recipient_city":"J","recipient_state":"K","recipient_country":"L","recipient_phone_number":"N","company_name":"Q","cover_letter_date":"O","cover_letter_title":null,"cover_letter_subject":"P","cover_letter_body":"R","selected_template_to_cover":null,"gpt_cover_letter_body":null,"created_at":"2024-12-01T21:39:23.601568","updated_at":"2024-12-01T21:39:23.601622","talent":"3eb3196d-14b8-4f9a-b3dc-692a3a7d4903"},{"id":44,"talent_full_name":"","talent_email":"","talent_street":"","talent_city":"","talent_state":"","talent_country":"","talent_phone_number":"","recipient_full_name":"","recipient_email":"","recipient_street":"","recipient_city":"","recipient_state":"","recipient_country":"","recipient_phone_number":"","company_name":"","cover_letter_date":"","cover_letter_title":null,"cover_letter_subject":"","cover_letter_body":"","selected_template_to_cover":null,"gpt_cover_letter_body":null,"created_at":"2024-12-01T18:03:42.122291","updated_at":"2024-12-01T18:03:42.122337","talent":"3eb3196d-14b8-4f9a-b3dc-692a3a7d4903"},{"id":27,"talent_full_name":"","talent_email":"","talent_street":"","talent_city":"","talent_state":"","talent_country":"","talent_phone_number":"","recipient_full_name":"","recipient_email":"","recipient_street":"","recipient_city":"","recipient_state":"","recipient_country":"","recipient_phone_number":"","company_name":"","cover_letter_date":"","cover_letter_title":null,"cover_letter_subject":"","cover_letter_body":"","selected_template_to_cover":null,"gpt_cover_letter_body":null,"created_at":"2024-12-01T15:36:57.542271","updated_at":"2024-12-01T15:36:57.542294","talent":"3eb3196d-14b8-4f9a-b3dc-692a3a7d4903"},{"id":37,"talent_full_name":"","talent_email":"","talent_street":"","talent_city":"","talent_state":"","talent_country":"","talent_phone_number":"","recipient_full_name":"","recipient_email":"","recipient_street":"","recipient_city":"","recipient_state":"","recipient_country":"","recipient_phone_number":"","company_name":"","cover_letter_date":"","cover_letter_title":null,"cover_letter_subject":"","cover_letter_body":"","selected_template_to_cover":null,"gpt_cover_letter_body":null,"created_at":"2024-12-01T17:30:07.215826","updated_at":"2024-12-01T17:30:07.215858","talent":"3eb3196d-14b8-4f9a-b3dc-692a3a7d4903"},{"id":28,"talent_full_name":"","talent_email":"","talent_street":"","talent_city":"","talent_state":"","talent_country":"","talent_phone_number":"","recipient_full_name":"","recipient_email":"","recipient_street":"","recipient_city":"","recipient_state":"","recipient_country":"","recipient_phone_number":"","company_name":"","cover_letter_date":"","cover_letter_title":null,"cover_letter_subject":"","cover_letter_body":"","selected_template_to_cover":null,"gpt_cover_letter_body":null,"created_at":"2024-12-01T15:40:02.520299","updated_at":"2024-12-01T15:40:02.520345","talent":"3eb3196d-14b8-4f9a-b3dc-692a3a7d4903"},{"id":50,"talent_full_name":"","talent_email":"","talent_street":"","talent_city":"","talent_state":"","talent_country":"","talent_phone_number":"","recipient_full_name":"","recipient_email":"","recipient_street":"","recipient_city":"","recipient_state":"","recipient_country":"","recipient_phone_number":"","company_name":"","cover_letter_date":"","cover_letter_title":null,"cover_letter_subject":"","cover_letter_body":"","selected_template_to_cover":null,"gpt_cover_letter_body":null,"created_at":"2024-12-01T21:40:13.214607","updated_at":"2024-12-01T21:40:13.214630","talent":"3eb3196d-14b8-4f9a-b3dc-692a3a7d4903"},{"id":29,"talent_full_name":"","talent_email":"","talent_street":"","talent_city":"","talent_state":"","talent_country":"","talent_phone_number":"","recipient_full_name":"","recipient_email":"","recipient_street":"","recipient_city":"","recipient_state":"","recipient_country":"","recipient_phone_number":"","company_name":"","cover_letter_date":"","cover_letter_title":null,"cover_letter_subject":"","cover_letter_body":"","selected_template_to_cover":null,"gpt_cover_letter_body":null,"created_at":"2024-12-01T15:46:04.418530","updated_at":"2024-12-01T15:46:04.418560","talent":"3eb3196d-14b8-4f9a-b3dc-692a3a7d4903"},{"id":38,"talent_full_name":"","talent_email":"","talent_street":"","talent_city":"","talent_state":"","talent_country":"","talent_phone_number":"","recipient_full_name":"","recipient_email":"","recipient_street":"","recipient_city":"","recipient_state":"","recipient_country":"","recipient_phone_number":"","company_name":"","cover_letter_date":"","cover_letter_title":null,"cover_letter_subject":"","cover_letter_body":"","selected_template_to_cover":null,"gpt_cover_letter_body":null,"created_at":"2024-12-01T17:39:25.816685","updated_at":"2024-12-01T17:39:25.816707","talent":"3eb3196d-14b8-4f9a-b3dc-692a3a7d4903"},{"id":21,"talent_full_name":"","talent_email":"","talent_street":"","talent_city":"","talent_state":"","talent_country":"","talent_phone_number":"","recipient_full_name":"","recipient_email":"","recipient_street":"","recipient_city":"","recipient_state":"","recipient_country":"","recipient_phone_number":"","company_name":"","cover_letter_date":"","cover_letter_title":null,"cover_letter_subject":"","cover_letter_body":"","selected_template_to_cover":null,"gpt_cover_letter_body":null,"created_at":"2024-11-30T21:34:59.074961","updated_at":"2024-11-30T21:34:59.074995","talent":"3eb3196d-14b8-4f9a-b3dc-692a3a7d4903"},{"id":30,"talent_full_name":"","talent_email":"","talent_street":"","talent_city":"","talent_state":"","talent_country":"","talent_phone_number":"","recipient_full_name":"","recipient_email":"","recipient_street":"","recipient_city":"","recipient_state":"","recipient_country":"","recipient_phone_number":"","company_name":"","cover_letter_date":"","cover_letter_title":null,"cover_letter_subject":"","cover_letter_body":"","selected_template_to_cover":null,"gpt_cover_letter_body":null,"created_at":"2024-12-01T15:49:01.601416","updated_at":"2024-12-01T15:49:01.601444","talent":"3eb3196d-14b8-4f9a-b3dc-692a3a7d4903"}]}