{"count":18,"next":"https://dev.getlinked.ai/talent/create_cover_letter/?page=2","previous":null,"results":[{"id":27,"talent_full_name":"","talent_email":"","talent_street":"","talent_city":"","talent_state":"","talent_country":"","talent_phone_number":"","recipient_full_name":"","recipient_email":"","recipient_street":"","recipient_city":"","recipient_state":"","recipient_country":"","recipient_phone_number":"","company_name":"","cover_letter_date":"","cover_letter_subject":"","cover_letter_body":"","selected_template_to_cover":null,"gpt_cover_letter_body":null,"created_at":"2024-12-01T15:36:57.542271","updated_at2":"2024-12-01T15:36:57.542294","talent":"3eb3196d-14b8-4f9a-b3dc-692a3a7d4903"},{"id":37,"talent_full_name":"","talent_email":"","talent_street":"","talent_city":"","talent_state":"","talent_country":"","talent_phone_number":"","recipient_full_name":"","recipient_email":"","recipient_street":"","recipient_city":"","recipient_state":"","recipient_country":"","recipient_phone_number":"","company_name":"","cover_letter_date":"","cover_letter_subject":"","cover_letter_body":"","selected_template_to_cover":null,"gpt_cover_letter_body":null,"created_at":"2024-12-01T17:30:07.215826","updated_at2":"2024-12-01T17:30:07.215858","talent":"3eb3196d-14b8-4f9a-b3dc-692a3a7d4903"},{"id":28,"talent_full_name":"","talent_email":"","talent_street":"","talent_city":"","talent_state":"","talent_country":"","talent_phone_number":"","recipient_full_name":"","recipient_email":"","recipient_street":"","recipient_city":"","recipient_state":"","recipient_country":"","recipient_phone_number":"","company_name":"","cover_letter_date":"","cover_letter_subject":"","cover_letter_body":"","selected_template_to_cover":null,"gpt_cover_letter_body":null,"created_at":"2024-12-01T15:40:02.520299","updated_at2":"2024-12-01T15:40:02.520345","talent":"3eb3196d-14b8-4f9a-b3dc-692a3a7d4903"},{"id":29,"talent_full_name":"","talent_email":"","talent_street":"","talent_city":"","talent_state":"","talent_country":"","talent_phone_number":"","recipient_full_name":"","recipient_email":"","recipient_street":"","recipient_city":"","recipient_state":"","recipient_country":"","recipient_phone_number":"","company_name":"","cover_letter_date":"","cover_letter_subject":"","cover_letter_body":"","selected_template_to_cover":null,"gpt_cover_letter_body":null,"created_at":"2024-12-01T15:46:04.418530","updated_at2":"2024-12-01T15:46:04.418560","talent":"3eb3196d-14b8-4f9a-b3dc-692a3a7d4903"},{"id":38,"talent_full_name":"","talent_email":"","talent_street":"","talent_city":"","talent_state":"","talent_country":"","talent_phone_number":"","recipient_full_name":"","recipient_email":"","recipient_street":"","recipient_city":"","recipient_state":"","recipient_country":"","recipient_phone_number":"","company_name":"","cover_letter_date":"","cover_letter_subject":"","cover_letter_body":"","selected_template_to_cover":null,"gpt_cover_letter_body":null,"created_at":"2024-12-01T17:39:25.816685","updated_at2":"2024-12-01T17:39:25.816707","talent":"3eb3196d-14b8-4f9a-b3dc-692a3a7d4903"},{"id":21,"talent_full_name":"","talent_email":"","talent_street":"","talent_city":"","talent_state":"","talent_country":"","talent_phone_number":"","recipient_full_name":"","recipient_email":"","recipient_street":"","recipient_city":"","recipient_state":"","recipient_country":"","recipient_phone_number":"","company_name":"","cover_letter_date":"","cover_letter_subject":"","cover_letter_body":"","selected_template_to_cover":null,"gpt_cover_letter_body":null,"created_at":"2024-11-30T21:34:59.074961","updated_at2":"2024-11-30T21:34:59.074995","talent":"3eb3196d-14b8-4f9a-b3dc-692a3a7d4903"},{"id":30,"talent_full_name":"","talent_email":"","talent_street":"","talent_city":"","talent_state":"","talent_country":"","talent_phone_number":"","recipient_full_name":"","recipient_email":"","recipient_street":"","recipient_city":"","recipient_state":"","recipient_country":"","recipient_phone_number":"","company_name":"","cover_letter_date":"","cover_letter_subject":"","cover_letter_body":"","selected_template_to_cover":null,"gpt_cover_letter_body":null,"created_at":"2024-12-01T15:49:01.601416","updated_at2":"2024-12-01T15:49:01.601444","talent":"3eb3196d-14b8-4f9a-b3dc-692a3a7d4903"},{"id":22,"talent_full_name":"","talent_email":"","talent_street":"","talent_city":"","talent_state":"","talent_country":"","talent_phone_number":"","recipient_full_name":"","recipient_email":"","recipient_street":"","recipient_city":"","recipient_state":"","recipient_country":"","recipient_phone_number":"","company_name":"","cover_letter_date":"","cover_letter_subject":"","cover_letter_body":"","selected_template_to_cover":null,"gpt_cover_letter_body":null,"created_at":"2024-12-01T14:44:46.308405","updated_at2":"2024-12-01T14:44:46.308426","talent":"3eb3196d-14b8-4f9a-b3dc-692a3a7d4903"},{"id":26,"talent_full_name":"Haa1","talent_email":"Haa2","talent_street":"Haa3","talent_city":"Haa4","talent_state":"Haa5","talent_country":"Haa6","talent_phone_number":"Haa7","recipient_full_name":"Haa8","recipient_email":"Haa9","recipient_street":"Haa10","recipient_city":"Haa11","recipient_state":"Haa12","recipient_country":"Haa13","recipient_phone_number":"Haa14","company_name":"Haa15","cover_letter_date":"Haa16","cover_letter_subject":"Haa17","cover_letter_body":"Haa18","selected_template_to_cover":null,"gpt_cover_letter_body":null,"created_at":"2024-12-01T15:30:06.772616","updated_at2":"2024-12-01T17:39:25.944337","talent":"3eb3196d-14b8-4f9a-b3dc-692a3a7d4903"},{"id":23,"talent_full_name":"","talent_email":"","talent_street":"","talent_city":"","talent_state":"","talent_country":"","talent_phone_number":"","recipient_full_name":"","recipient_email":"","recipient_street":"","recipient_city":"","recipient_state":"","recipient_country":"","recipient_phone_number":"","company_name":"","cover_letter_date":"","cover_letter_subject":"","cover_letter_body":"","selected_template_to_cover":null,"gpt_cover_letter_body":null,"created_at":"2024-12-01T15:06:19.264449","updated_at2":"2024-12-01T15:06:19.264474","talent":"3eb3196d-14b8-4f9a-b3dc-692a3a7d4903"}]}